%YAML 1.1
%TAG !u! tag:unity3d.com,2011:
--- !u!21 &2100000
Material:
  serializedVersion: 6
  m_ObjectHideFlags: 0
  m_CorrespondingSourceObject: {fileID: 0}
  m_PrefabInstance: {fileID: 0}
  m_PrefabAsset: {fileID: 0}
  m_Name: -Flag
  m_Shader: {fileID: 4800000, guid: fc025655beccc3448951b44e075d4cc0, type: 3}
  m_ShaderKeywords: _NORMALMAP _USESUBSURFACESCATTERINGCOLOR_ON
  m_LightmapFlags: 0
  m_EnableInstancingVariants: 0
  m_DoubleSidedGI: 0
  m_CustomRenderQueue: 2450
  stringTagMap: {}
  disabledShaderPasses: []
  m_SavedProperties:
    serializedVersion: 3
    m_TexEnvs:
    - _BaseColor:
        m_Texture: {fileID: 2800000, guid: 09e065dff54b2684fb580c0e75d9b8d2, type: 3}
        m_Scale: {x: 1, y: 1}
        m_Offset: {x: 0, y: 0}
    - _BumpMap:
        m_Texture: {fileID: 2800000, guid: 9b7139252adffae409523c17b5a711b8, type: 3}
        m_Scale: {x: 1, y: 1}
        m_Offset: {x: 0, y: 0}
    - _CompactMap:
        m_Texture: {fileID: 2800000, guid: 6dc36e763580c9b4cb156216d33d43c6, type: 3}
        m_Scale: {x: 1, y: 1}
        m_Offset: {x: 0, y: 0}
    - _DetailAlbedoMap:
        m_Texture: {fileID: 0}
        m_Scale: {x: 1, y: 1}
        m_Offset: {x: 0, y: 0}
    - _DetailMask:
        m_Texture: {fileID: 0}
        m_Scale: {x: 1, y: 1}
        m_Offset: {x: 0, y: 0}
    - _DetailNormalMap:
        m_Texture: {fileID: 0}
        m_Scale: {x: 1, y: 1}
        m_Offset: {x: 0, y: 0}
    - _EmissionMap:
        m_Texture: {fileID: 0}
        m_Scale: {x: 1, y: 1}
        m_Offset: {x: 0, y: 0}
    - _MainTex:
        m_Texture: {fileID: 0}
        m_Scale: {x: 1, y: 1}
        m_Offset: {x: 0, y: 0}
    - _MetalicMap:
        m_Texture: {fileID: 2800000, guid: 6dc36e763580c9b4cb156216d33d43c6, type: 3}
        m_Scale: {x: 1, y: 1}
        m_Offset: {x: 0, y: 0}
    - _MetallicGlossMap:
        m_Texture: {fileID: 0}
        m_Scale: {x: 1, y: 1}
        m_Offset: {x: 0, y: 0}
    - _NormalMap:
        m_Texture: {fileID: 2800000, guid: 9b7139252adffae409523c17b5a711b8, type: 3}
        m_Scale: {x: 1, y: 1}
        m_Offset: {x: 0, y: 0}
    - _OcclusionMap:
        m_Texture: {fileID: 0}
        m_Scale: {x: 1, y: 1}
        m_Offset: {x: 0, y: 0}
    - _ParallaxMap:
        m_Texture: {fileID: 0}
        m_Scale: {x: 1, y: 1}
        m_Offset: {x: 0, y: 0}
    m_Floats:
    - _AlphaCutoff: 0.55
    - _AmbientOcclusion: 0.35
    - _BumpScale: 1
    - _Cutoff: 0.5
    - _DetailNormalMapScale: 1
    - _DstBlend: 0
    - _Glossiness: 0.5
    - _Metalic: 0
    - _Metallic: 0
    - _Mode: 0
    - _OcclusionStrength: 1
    - _Parallax: 0.02
    - _Roughness: 1
    - _SrcBlend: 1
    - _SubSurfaceScatteringAmount: 1
    - _UVSec: 0
    - _UseSubSurfaceScatteringColor: 1
    - _VertexColoring: -6.38
    - _VertexColoringPower: 0.25
    - _WindIntensity: 0.06
    - _ZWrite: 1
    m_Colors:
    - _BaseColorTint: {r: 1, g: 1, b: 1, a: 1}
    - _Color: {r: 0.2158605, g: 0.2158605, b: 0.2158605, a: 1}
    - _EmissionColor: {r: 0, g: 0, b: 0, a: 1}
    - _SubSurfaceScatteringColor: {r: 0.86764705, g: 0.86764705, b: 0.86764705, a: 1}
    - _VertexColor: {r: 0.8235294, g: 0.8235294, b: 0.8235294, a: 1}
  m_BuildTextureStacks: []
